{
  "project_info": {
    "project_number": "782043875758",
    "firebase_url": "https://hamhama-mobile.firebaseio.com",
    "project_id": "hamhama-mobile",
    "storage_bucket": "hamhama-mobile.appspot.com"
  },
  "client": [
    {
      "client_info": {
        "mobilesdk_app_id": "1:782043875758:android:c1f0f09aa42eba16",
        "android_client_info": {
          "package_name": "com.google.firebase.example.fireeats"
        }
      },
      "oauth_client": [
        {
          "client_id": "782043875758-nf5m8s81popa4uq871lso9eidkaitb8q.apps.googleusercontent.com",
          "client_type": 1,
          "android_info": {
            "package_name": "com.google.firebase.example.fireeats",
            "certificate_hash": "836bcc287f15d5c52d8bc9b41b0e27b22ea3e6d2"
          }
        },
        {
          "client_id": "782043875758-bk85pn6o5h1hv6ulit1hsbjc1rro1alb.apps.googleusercontent.com",
          "client_type": 3
        }
      ],
      "api_key": [
        {
          "current_key": "AIzaSyBv3WTNpwWn-LEC7ZloH8Yv1XUGo9oPFYk"
        }
      ],
      "services": {
        "analytics_service": {
          "status": 1
        },
        "appinvite_service": {
          "status": 2,
          "other_platform_oauth_client": [
            {
              "client_id": "782043875758-bk85pn6o5h1hv6ulit1hsbjc1rro1alb.apps.googleusercontent.com",
              "client_type": 3
            }
          ]
        },
        "ads_service": {
          "status": 2
        }
      }
    },
    {
      "client_info": {
        "mobilesdk_app_id": "1:782043875758:android:87fcb66cc6ca320a",
        "android_client_info": {
          "package_name": "com.google.firebase.quickstart.auth"
        }
      },
      "oauth_client": [
        {
          "client_id": "782043875758-ud0l6nmvdcgd502ei3e1fr1dghi902ok.apps.googleusercontent.com",
          "client_type": 1,
          "android_info": {
            "package_name": "com.google.firebase.quickstart.auth",
            "certificate_hash": "836bcc287f15d5c52d8bc9b41b0e27b22ea3e6d2"
          }
        },
        {
          "client_id": "782043875758-bk85pn6o5h1hv6ulit1hsbjc1rro1alb.apps.googleusercontent.com",
          "client_type": 3
        }
      ],
      "api_key": [
        {
          "current_key": "AIzaSyBv3WTNpwWn-LEC7ZloH8Yv1XUGo9oPFYk"
        }
      ],
      "services": {
        "analytics_service": {
          "status": 1
        },
        "appinvite_service": {
          "status": 2,
          "other_platform_oauth_client": [
            {
              "client_id": "782043875758-bk85pn6o5h1hv6ulit1hsbjc1rro1alb.apps.googleusercontent.com",
              "client_type": 3
            }
          ]
        },
        "ads_service": {
          "status": 2
        }
      }
    },
    {
      "client_info": {
        "mobilesdk_app_id": "1:782043875758:android:fcfef757a832647b",
        "android_client_info": {
          "package_name": "com.google.firebase.quickstart.database"
        }
      },
      "oauth_client": [
        {
          "client_id": "782043875758-p5cr7ie1vilqt38ib9k8tu08og9f1l6d.apps.googleusercontent.com",
          "client_type": 1,
          "android_info": {
            "package_name": "com.google.firebase.quickstart.database",
            "certificate_hash": "836bcc287f15d5c52d8bc9b41b0e27b22ea3e6d2"
          }
        },
        {
          "client_id": "782043875758-bk85pn6o5h1hv6ulit1hsbjc1rro1alb.apps.googleusercontent.com",
          "client_type": 3
        }
      ],
      "api_key": [
        {
          "current_key": "AIzaSyBv3WTNpwWn-LEC7ZloH8Yv1XUGo9oPFYk"
        }
      ],
      "services": {
        "analytics_service": {
          "status": 1
        },
        "appinvite_service": {
          "status": 2,
          "other_platform_oauth_client": [
            {
              "client_id": "782043875758-bk85pn6o5h1hv6ulit1hsbjc1rro1alb.apps.googleusercontent.com",
              "client_type": 3
            }
          ]
        },
        "ads_service": {
          "status": 2
        }
      }
    },
    {
      "client_info": {
        "mobilesdk_app_id": "1:782043875758:android:5920de3503a2d18c",
        "android_client_info": {
          "package_name": "com.google.firebase.quickstart.fcm"
        }
      },
      "oauth_client": [
        {
          "client_id": "782043875758-bk85pn6o5h1hv6ulit1hsbjc1rro1alb.apps.googleusercontent.com",
          "client_type": 3
        }
      ],
      "api_key": [
        {
          "current_key": "AIzaSyBv3WTNpwWn-LEC7ZloH8Yv1XUGo9oPFYk"
        }
      ],
      "services": {
        "analytics_service": {
          "status": 1
        },
        "appinvite_service": {
          "status": 1,
          "other_platform_oauth_client": []
        },
        "ads_service": {
          "status": 2
        }
      }
    },
    {
      "client_info": {
        "mobilesdk_app_id": "1:782043875758:android:5c63e257cded3e72",
        "android_client_info": {
          "package_name": "com.naru.hamhama"
        }
      },
      "oauth_client": [
        {
          "client_id": "782043875758-55lcgpaf4f18v7de9s8e4ncssgum3c5u.apps.googleusercontent.com",
          "client_type": 1,
          "android_info": {
            "package_name": "com.naru.hamhama",
            "certificate_hash": "836bcc287f15d5c52d8bc9b41b0e27b22ea3e6d2"
          }
        },
        {
          "client_id": "782043875758-bk85pn6o5h1hv6ulit1hsbjc1rro1alb.apps.googleusercontent.com",
          "client_type": 3
        }
      ],
      "api_key": [
        {
          "current_key": "AIzaSyBv3WTNpwWn-LEC7ZloH8Yv1XUGo9oPFYk"
        }
      ],
      "services": {
        "analytics_service": {
          "status": 1
        },
        "appinvite_service": {
          "status": 2,
          "other_platform_oauth_client": [
            {
              "client_id": "782043875758-bk85pn6o5h1hv6ulit1hsbjc1rro1alb.apps.googleusercontent.com",
              "client_type": 3
            }
          ]
        },
        "ads_service": {
          "status": 2
        }
      }
    }
  ],
  "configuration_version": "1"
}